<svg xmlns="http://www.w3.org/2000/svg" width="18" height="25" viewBox="0 0 18 25">
  <defs>
    <style>
      .cls-1 {
        fill: #ffb600;
        fill-rule: evenodd;
      }
    </style>
  </defs>
  <path class="cls-1" d="M1282.51,786.609a8.84,8.84,0,1,1-15.47-5.838v-3.1a6.635,6.635,0,1,1,13.27,0v3.1A8.806,8.806,0,0,1,1282.51,786.609Zm-9.65.358-0.37,3.777h2.37l-0.38-3.777A1.74,1.74,0,1,0,1272.86,786.967Zm5.36-9.295a4.55,4.55,0,1,0-9.1,0v1.356a8.762,8.762,0,0,1,9.1,0v-1.356Z" transform="translate(-1264.67 -770.75)"/>
</svg>
