<svg xmlns="http://www.w3.org/2000/svg" width="34" height="21" viewBox="0 0 34 21">
  <metadata><?xpacket begin="﻿" id="W5M0MpCehiHzreSzNTczkc9d"?>
<x:xmpmeta xmlns:x="adobe:ns:meta/" x:xmptk="Adobe XMP Core 5.6-c138 79.159824, 2016/09/14-01:09:01        ">
   <rdf:RDF xmlns:rdf="http://www.w3.org/1999/02/22-rdf-syntax-ns#">
      <rdf:Description rdf:about=""/>
   </rdf:RDF>
</x:xmpmeta>
                                                                                                    
                                                                                                    
                                                                                                    
                                                                                                    
                                                                                                    
                                                                                                    
                                                                                                    
                                                                                                    
                                                                                                    
                                                                                                    
                                                                                                    
                                                                                                    
                                                                                                    
                                                                                                    
                                                                                                    
                                                                                                    
                                                                                                    
                                                                                                    
                                                                                                    
                                                                                                    
                           
<?xpacket end="w"?></metadata>
<defs>
    <style>
      .cls-1 {
        fill: #ffb600;
        fill-rule: evenodd;
      }
    </style>
  </defs>
  <path class="cls-1" d="M83.6,5521.49a10.441,10.441,0,1,1,0-20.88H98.693a7.881,7.881,0,1,1,0,15.76H87.31a5.32,5.32,0,1,1,0-10.64h9.848v3.11H87.31a2.21,2.21,0,1,0,0,4.42H98.693a4.77,4.77,0,1,0,0-9.54H83.6a7.331,7.331,0,1,0,0,14.66v3.11Z" transform="translate(-72.86 -5500.545)"/>
</svg>
