<svg xmlns="http://www.w3.org/2000/svg" width="40" height="40" viewBox="0 0 40 40">
  <defs>
    <style>
      .cls-1 {
        fill: #666;
        fill-rule: evenodd;
      }
    </style>
  </defs>
  <path class="cls-1" d="M1534.02,805.587l11.03,10.975a2.01,2.01,0,0,1-2.85,2.836l-10.85-10.8-10.85,10.8a2.014,2.014,0,0,1-2.86-2.836l11.03-10.975-11.03-10.974a2.012,2.012,0,0,1,0-2.837,2.033,2.033,0,0,1,2.86,0l10.85,10.8,10.85-10.8a2.021,2.021,0,0,1,2.85,0,1.994,1.994,0,0,1,0,2.837Z" transform="translate(-1511.36 -785.61)"/>
</svg>
